…
The resulting data set has 50400 rows and 6 columns. It contains week,
day_id, day, minute, activity, is_weekday columns. It contains 5 weeks
of data of an accelerometer worn by a patient.

``` r
accel_data %>% 
  group_by(day_id) %>%
  summarise(total_activity = sum(activity))
```

    ## # A tibble: 35 × 2
    ##    day_id total_activity
    ##     <dbl>          <dbl>
    ##  1      1        480543.
    ##  2      2         78828.
    ##  3      3        376254 
    ##  4      4        631105 
    ##  5      5        355924.
    ##  6      6        307094.
    ##  7      7        340115.
    ##  8      8        568839 
    ##  9      9        295431 
    ## 10     10        607175 
    ## # … with 25 more rows
…
